%YAML 1.1
%TAG !u! tag:unity3d.com,2011:
--- !u!162 &1
EditorUserSettings:
  m_ObjectHideFlags: 0
  serializedVersion: 4
  m_ConfigSettings:
    RecentlyUsedSceneGuid-0:
      value: 5108065f0107080d09080921457a5c44474f4129747e77632e2c1e6be4b16660
      flags: 0
    RecentlyUsedSceneGuid-1:
      value: 530802505c07505d5e5e5877137a08441516487b752b73657d7f1865b2b86d3b
      flags: 0
    RecentlyUsedSceneGuid-2:
      value: 0154525f5303080e085a557a45775b42144e1b2c287125657c2a1e6bb7e66d3a
      flags: 0
    RecentlyUsedSceneGuid-3:
      value: 0505555653040f08595b597b4570594447151b29282c7760747b4a63b5e1603b
      flags: 0
    RecentlyUsedSceneGuid-4:
      value: 0500050707055e0c590f5a2611220e44104e4a7b7a2d71332c714b62b3b4666a
      flags: 0
    RecentlyUsedScenePath-0:
      value: 22424703114646680e0b0227036c6f1c170e1f38233d28346d0b5326ece92021
      flags: 0
    RecentlyUsedScenePath-1:
      value: 22424703114646680e0b0227036c6f1c170e1f38233d2834633c133af6f9
      flags: 0
    RecentlyUsedScenePath-2:
      value: 22424703114646680e0b0227036c6f1c170e1f38233d2834120b5326ece92021
      flags: 0
    RecentlyUsedScenePath-3:
      value: 22424703114646680e0b0227036c6f1c170e1f38233d28346d001337f0e17a2decee22f0
      flags: 0
    vcSharedLogLevel:
      value: 0d5e400f0650
      flags: 0
  m_VCAutomaticAdd: 1
  m_VCDebugCom: 0
  m_VCDebugCmd: 0
  m_VCDebugOut: 0
  m_SemanticMergeMode: 2
  m_DesiredImportWorkerCount: 8
  m_StandbyImportWorkerCount: 2
  m_IdleImportWorkerShutdownDelay: 60000
  m_VCShowFailedCheckout: 1
  m_VCOverwriteFailedCheckoutAssets: 1
  m_VCProjectOverlayIcons: 1
  m_VCHierarchyOverlayIcons: 1
  m_VCOtherOverlayIcons: 1
  m_VCAllowAsyncUpdate: 1
  m_ArtifactGarbageCollection: 1
